{
	"credit": "Made with Blockbench, a free, modern block model editor by JannisX11",
	"textures": {"egg": "wofmc:blocks/egg_seawing", "particle": "wofmc:blocks/egg_seawing"},
	"elements": [
		{
			"name": "Egg1",
			"from": [3, 0, 3],
			"to": [13, 1, 13],
			"faces": {
				"north": {
					"uv": [3, 15, 13, 16],
					"texture": "#egg"
				},
				"east": {
					"uv": [13, 16, 3, 15],
					"texture": "#egg"
				},
				"south": {
					"uv": [3, 15, 13, 16],
					"texture": "#egg"
				},
				"west": {
					"uv": [3, 15, 13, 16],
					"texture": "#egg"
				},
				"up": {"uv": [3, 3, 13, 13], "texture": "#egg"},
				"down": {
					"uv": [3, 3, 13, 13],
					"texture": "#egg"
				}
			}
		},

		{
			"name": "Egg2",
			"from": [2, 1, 2],
			"to": [14, 3, 14],
			"faces": {
				"north": {
					"uv": [0, 0, 12, 2],
					"texture": "#egg"
				},
				"east": {
					"uv": [0, 0, 12, 2],
					"texture": "#egg"
				},
				"south": {
					"uv": [0, 0, 12, 2],
					"texture": "#egg"
				},
				"west": {
					"uv": [0, 0, 12, 2],
					"texture": "#egg"
				},
				"up": {"uv": [0, 0, 12, 12], "texture": "#egg"},
				"down": {
					"uv": [0, 0, 12, 12],
					"texture": "#egg"
				}
			}
		},

		{
			"name": "Egg3",
			"from": [1, 3, 1],
			"to": [15, 8, 15],
			"faces": {
				"north": {
					"uv": [0, 0, 14, 5],
					"texture": "#egg"
				},
				"east": {
					"uv": [0, 0, 14, 5],
					"texture": "#egg"
				},
				"south": {
					"uv": [0, 0, 14, 5],
					"texture": "#egg"
				},
				"west": {
					"uv": [0, 0, 14, 5],
					"texture": "#egg"
				},
				"up": {"uv": [0, 0, 14, 14], "texture": "#egg"},
				"down": {
					"uv": [0, 0, 14, 14],
					"texture": "#egg"
				}
			}
		},

		{
			"name": "Egg4",
			"from": [2, 8, 2],
			"to": [14, 11, 14],
			"faces": {
				"north": {
					"uv": [0, 0, 12, 3],
					"texture": "#egg"
				},
				"east": {
					"uv": [0, 0, 12, 3],
					"texture": "#egg"
				},
				"south": {
					"uv": [0, 0, 12, 3],
					"texture": "#egg"
				},
				"west": {
					"uv": [0, 0, 12, 3],
					"texture": "#egg"
				},
				"up": {"uv": [0, 0, 12, 12], "texture": "#egg"},
				"down": {
					"uv": [0, 0, 12, 12],
					"texture": "#egg"
				}
			}
		},

		{
			"name": "Egg5",
			"from": [3, 11, 3],
			"to": [13, 13, 13],
			"faces": {
				"north": {
					"uv": [0, 0, 10, 2],
					"texture": "#egg"
				},
				"east": {
					"uv": [0, 0, 10, 2],
					"texture": "#egg"
				},
				"south": {
					"uv": [0, 0, 10, 2],
					"texture": "#egg"
				},
				"west": {
					"uv": [0, 0, 10, 2],
					"texture": "#egg"
				},
				"up": {"uv": [0, 0, 10, 10], "texture": "#egg"},
				"down": {
					"uv": [0, 0, 10, 10],
					"texture": "#egg"
				}
			}
		},

		{
			"name": "Egg6",
			"from": [5, 13, 5],
			"to": [11, 15, 11],
			"faces": {
				"north": {
					"uv": [0, 0, 6, 2],
					"texture": "#egg"
				},
				"east":
				{"uv": [0, 0, 6, 2], "texture": "#egg"},
				"south": {
					"uv": [0, 0, 6, 2],
					"texture": "#egg"
				},
				"west": {"uv": [0, 0, 6, 2], "texture": "#egg"},
				"up": {"uv": [0, 0, 6, 6], "texture": "#egg"},
				"down": {"uv": [0, 0, 6, 6], "texture": "#egg"}
			}
		},

		{
			"name": "Egg7",
			"from": [6, 15, 6],
			"to": [10, 16, 10],
			"faces": {
				"north": {
					"uv": [0, 0, 4, 1],
					"texture": "#egg"
				},
				"east": {"uv": [0, 0, 4, 1], "texture": "#egg"},
				"south": {
					"uv": [0, 0, 4, 1],
					"texture": "#egg"
				},
				"west": {"uv": [0, 0, 4, 1], "texture": "#egg"},
				"up": {"uv": [0, 0, 4, 4], "texture": "#egg"},
				"down": {"uv": [0, 0, 4, 4], "texture": "#egg"}
			}
		}
	],

	"groups": [6, 5, 4, 3, 2, 1, 0],
	"display": {
		"thirdperson_righthand": {"scale": [1, 1, 1]},
		"thirdperson_lefthand": {"scale": [1, 1, 1]},
		"firstperson_righthand": {"scale": [1, 1, 1]},
		"head": {"scale": [1, 1, 1]},
		"firstperson_lefthand": {"scale": [1, 1, 1]},
		"ground": {"scale": [1, 1, 1]},
		"gui": {"scale": [1, 1, 1]},
		"fixed": {"scale": [1, 1, 1]}
	}
}