{
	"forge_marker": 1,
	"defaults": {
		"textures": {
			"all": "wofmc:blocks/ore_silver"
		}
	},
	
	"variants": {
		"normal": {
			"model": "cube_all"
		},
		
		"inventory": {
			"model": "cube_all"
		}
	}
}