{
	"type": "minecraft:crafting_shaped",
	"pattern": [
		"N N",
		" E "
	],

	"key": {
		"E": {
			"item": "wofmc:eye_onyx"
		},

		"N": {
			"item": "minecraft:gold_nugget"
		}
	},

	"result": {
		"item": "wofmc:eye_onyxw"
	}
}